<?xml version="1.0" encoding="utf-8"?>
<!-- Generator: Adobe Illustrator 21.1.0, SVG Export Plug-In . SVG Version: 6.00 Build 0)  -->
<svg version="1.1" id="Calque_1" xmlns="http://www.w3.org/2000/svg" xmlns:xlink="http://www.w3.org/1999/xlink" x="0px" y="0px"
	 viewBox="0 0 512 512" style="enable-background:new 0 0 512 512;" xml:space="preserve">
<style type="text/css">
	.st0{fill:none;}
</style>
<g id="Outline_Icons_1_">
	<g>
		<path d="M394.11084,512.49158c-2.133,0-4.26599,0-6.39896-2.133l-277.28821-245.2934
			c-2.133-2.133-4.26599-6.39896-4.26599-8.53195c0-2.13298,2.13299-6.39896,4.26597-8.53192L387.71188,2.7079
			c4.26599-4.26597,10.66495-4.26597,14.93091,0c4.26599,4.26597,4.26599,10.66493,0,14.9309L133.88652,256.53323
			l268.75629,236.76147c4.26599,4.26599,4.26599,10.66495,0,14.93091C400.50977,510.35858,396.24384,512.49158,394.11084,512.49158z
			"/>
	</g>
</g>
</svg>
