<?xml version="1.0" encoding="utf-8"?>
<!-- Generator: Adobe Illustrator 21.1.0, SVG Export Plug-In . SVG Version: 6.00 Build 0)  -->
<svg version="1.1" id="Calque_1" xmlns="http://www.w3.org/2000/svg" xmlns:xlink="http://www.w3.org/1999/xlink" x="0px" y="0px"
	 viewBox="0 0 512 512" style="enable-background:new 0 0 512 512;" xml:space="preserve">
<style type="text/css">
	.st0{fill:none;}
</style>
<path d="M401.57642,249.06802L124.2882,3.77462c-4.26623-4.26623-10.66492-4.26623-14.93116,0s-2.13246,10.66493,2.13247,14.93116
	l266.62326,236.76094L109.35704,492.22766c-4.26624,4.26624-4.26624,10.66492,0,14.93115
	c2.13247,2.13379,6.3987,4.26624,8.53246,4.26624c2.13247,0,4.26493,0,6.3987,0l277.28821-245.2934
	c2.13245-2.13248,4.2662-4.26624,4.2662-8.53116C405.84262,253.33426,403.70886,251.20049,401.57642,249.06802z"/>
</svg>
