<?xml version="1.0" encoding="utf-8"?>
<!-- Generator: Adobe Illustrator 21.1.0, SVG Export Plug-In . SVG Version: 6.00 Build 0)  -->
<svg version="1.1" id="Calque_1" xmlns="http://www.w3.org/2000/svg" xmlns:xlink="http://www.w3.org/1999/xlink" x="0px" y="0px"
	 viewBox="0 0 512 512" style="enable-background:new 0 0 512 512;" xml:space="preserve">
<style type="text/css">
	.st0{fill:none;}
</style>
<g>
	<path d="M328.62125,128.02083l-98.11815,125.8454l-49.05841-49.05841c-2.13246-4.26624-10.66493-4.26624-14.92987,0
		c-4.26622,4.26624-4.26622,10.66493,0,14.93115l57.58958,57.5909c2.13377,2.13248,4.26624,2.13248,8.53247,2.13248
		c2.13246,0,6.3987-2.13248,8.53116-4.26624l106.64932-134.37788c4.26624-4.26622,2.13376-10.66492-2.13248-14.93116
		C339.28616,123.7546,332.88748,123.7546,328.62125,128.02083z"/>
	<path d="M509.92508,430.90512l-76.7883-132.24539c14.93118-27.72858,25.5961-61.85713,25.5961-95.98438
		c0-110.91555-91.71814-202.63368-202.63367-202.63368S53.46552,91.7598,53.46552,202.67535
		c0,34.12724,8.53247,68.2558,25.59609,95.98438L2.27463,430.90512c-2.13377,4.26492-2.13377,8.53116,0,10.66495
		c2.13247,2.13245,6.3987,6.39868,10.66493,6.39868l72.52075-12.79871l25.59609,70.38831
		c2.13377,4.2662,4.26623,6.39999,8.53246,6.39999s6.3987-2.13379,8.53116-4.26624l66.12335-110.91556
		c21.32986,6.39871,40.52596,8.53247,61.85583,8.53247c21.32983,0,40.52725-2.13376,59.72464-8.53247l66.12204,110.91556
		c2.13248,4.26624,6.39871,4.26624,8.53116,4.26624c4.26624,0,8.53247-2.13379,8.53247-6.39871l25.5961-70.38959l72.52075,12.79871
		c4.26624,0,8.53247,0,10.66492-4.26624C512.05756,439.43628,512.05756,435.17004,509.92508,430.90512z M123.8551,475.6973
		l-21.32986-57.59088c-2.13377-4.26624-6.4-8.53244-12.7987-6.39868l-59.72335,10.66492l61.85712-102.38306
		c21.32986,29.86102,51.19089,53.32465,85.31944,68.2558L123.8551,475.6973z M256.09921,383.97916
		c-100.24931,0-181.30383-81.05319-181.30383-181.3038S155.8499,21.37152,256.09921,21.37152
		c100.25058,0,181.3038,81.05321,181.3038,181.30383S356.34979,383.97916,256.09921,383.97916z M420.33939,411.70773
		c-4.26624,0-10.66492,2.13245-12.79739,6.39868l-21.32986,57.59088l-53.32465-87.45319
		c34.12726-14.92987,63.98959-38.39349,85.31946-68.25452l59.72333,102.38306L420.33939,411.70773z"/>
</g>
</svg>
