<?xml version="1.0" encoding="utf-8"?>
<!-- Generator: Adobe Illustrator 21.1.0, SVG Export Plug-In . SVG Version: 6.00 Build 0)  -->
<svg version="1.1" id="Layer_1" xmlns="http://www.w3.org/2000/svg" xmlns:xlink="http://www.w3.org/1999/xlink" x="0px" y="0px"
	 viewBox="0 0 512 512" style="enable-background:new 0 0 512 512;" xml:space="preserve">
<path d="M418.2,146.4L418.2,146.4c-0.2-4.9-4.3-8.7-9.2-8.7h-66.5v-33.4c0-47.7-38.8-86.5-86.5-86.5c-47.7,0-86.5,38.8-86.5,86.5
	v33.4H103c-4.9,0-8.9,3.8-9.2,8.7L77.7,484.6c-0.1,2.5,0.8,4.9,2.5,6.7c1.7,1.8,4.1,2.8,6.6,2.8h338.2c2.5,0,4.9-1,6.6-2.8
	c1.7-1.8,2.6-4.3,2.5-6.8L418.2,146.4z M96.5,475.9L111.7,156h57.7v19.5c0,5.1,4.1,9.2,9.2,9.2s9.2-4.1,9.2-9.2V156h136.5v19.5
	c0,5.1,4.1,9.2,9.2,9.2c5,0,9.2-4.1,9.2-9.2V156h57.7l15.2,319.9H96.5z M187.8,137.7v-33.4c0-37.6,30.6-68.2,68.2-68.2
	s68.2,30.6,68.2,68.2v33.4H187.8z"/>
</svg>
