<?xml version="1.0" encoding="utf-8"?>
<!-- Generator: Adobe Illustrator 21.1.0, SVG Export Plug-In . SVG Version: 6.00 Build 0)  -->
<svg version="1.1" id="Calque_1" xmlns="http://www.w3.org/2000/svg" xmlns:xlink="http://www.w3.org/1999/xlink" x="0px" y="0px"
	 viewBox="0 0 512 512" style="enable-background:new 0 0 512 512;" xml:space="preserve">
<style type="text/css">
	.st0{fill:none;}
</style>
<g>
	<path d="M500.22653,32.03646H9.63971c-6.3987,0-10.66493,4.26623-10.66493,10.66493v341.27777
		c0,6.39871,4.26623,10.66495,10.66493,10.66495h138.6441v74.65451c0,4.26624,2.13376,8.53247,6.39999,10.66492
		c2.13246,0,2.13246,0,4.26494,0c2.13376,0,6.39999-2.13245,8.53246-2.13245l83.18698-83.18698h251.69211
		c6.39868,0,10.66492-4.26624,10.66492-10.66495V42.70139C510.89145,36.30269,506.62653,32.03646,500.22653,32.03646z
		 M489.56158,373.31424h-245.2934c-2.13246,0-6.3987,2.13376-8.53117,2.13376l-66.12334,68.25452v-59.72336
		c0-6.39868-4.26494-10.66492-10.66493-10.66492H20.30464V53.36632h469.25696V373.31424z"/>
	<path d="M244.26819,245.33507c6.39999,0,10.66493-4.26624,10.66493-10.66493V106.69097
		c0-6.3987-4.26494-10.66493-10.66493-10.66493c-6.3987,0-10.66493,4.26624-10.66493,10.66493v127.97916
		C233.60326,241.06883,237.86949,245.33507,244.26819,245.33507z"/>
	<path d="M244.26819,309.32465c12.79871,0,21.32986-8.53116,21.32986-21.32986c0-12.79739-8.53116-21.32986-21.32986-21.32986
		c-12.79739,0-21.32986,8.53247-21.32986,21.32986C222.93832,300.79349,231.47079,309.32465,244.26819,309.32465z"/>
</g>
</svg>
