<?xml version="1.0" encoding="utf-8"?>
<!-- Generator: Adobe Illustrator 21.1.0, SVG Export Plug-In . SVG Version: 6.00 Build 0)  -->
<svg version="1.1" id="Calque_1" xmlns="http://www.w3.org/2000/svg" xmlns:xlink="http://www.w3.org/1999/xlink" x="0px" y="0px"
	 viewBox="0 0 512 512" style="enable-background:new 0 0 512 512;" xml:space="preserve">
<style type="text/css">
	.st0{fill:none;}
</style>
<path d="M256,18.17218c-68.25581,0-132.24539,21.32986-179.17136,61.85712C27.77022,118.42278,0.04166,171.74744,0.04166,229.33832
	c0,55.45712,25.59609,106.64932,70.38828,145.04282L19.23906,476.76419c-2.13377,4.26624-2.13377,8.53247,2.13247,12.79871
	c2.13247,2.13245,4.26623,4.26492,8.53247,4.26492c2.13247,0,2.13247,0,4.26493,0l136.51163-63.98959
	c27.72856,8.53247,55.45712,12.79871,85.31944,12.79871c140.77655,0,255.95834-93.8519,255.95834-211.16614
	S396.77655,18.17218,256,18.17218z M256,419.17331c-27.72856,0-55.45712-4.26492-83.18698-12.79739c-2.13246,0-4.26492,0-8.53116,0
	l-113.048,53.32465l40.52595-83.18698c2.13377-4.26492,0-10.66492-2.13246-12.79739
	c-42.65972-36.26102-68.25581-83.18698-68.25581-134.37787c0-51.19218,23.46233-98.11813,68.25581-132.24539
	C134.41953,58.69943,192.01042,39.50204,256,39.50204c130.11163,0,234.62848,85.31944,234.62848,189.83627
	C490.62848,333.85385,386.11163,419.17331,256,419.17331z"/>
</svg>
