<?xml version="1.0" encoding="utf-8"?>
<!-- Generator: Adobe Illustrator 21.1.0, SVG Export Plug-In . SVG Version: 6.00 Build 0)  -->
<svg version="1.1" id="Calque_1" xmlns="http://www.w3.org/2000/svg" xmlns:xlink="http://www.w3.org/1999/xlink" x="0px" y="0px"
	 viewBox="0 0 512 512" style="enable-background:new 0 0 512 512;" xml:space="preserve">
<style type="text/css">
	.st0{fill:none;}
</style>
<g>
	<path d="M500.22717,42.70139H9.64036c-6.4,0-10.66493,4.26624-10.66493,10.66493v319.94794
		c0,6.39868,4.26493,10.66492,10.66493,10.66492h138.64409v74.65454c0,4.2662,2.13248,8.53244,6.3987,10.66492
		c2.13248,0,2.13248,0,4.26624,0c2.13248,0,6.3987-2.13248,8.53117-2.13248l83.18698-83.18698h251.69211
		c6.39868,0,10.66495-4.26624,10.66495-10.66492V53.36632C510.89209,46.96762,506.62589,42.70139,500.22717,42.70139z
		 M489.56226,362.64929H244.26883c-2.13376,0-6.39999,2.13379-8.53246,2.13379l-66.12206,68.25452v-59.72336
		c0-6.39871-4.26624-10.66495-10.66493-10.66495H20.30529V64.03125h469.25696V362.64929z"/>
	<path d="M222.93898,298.65973c-6.40001,0-10.66493,4.26624-10.66493,10.66492c0,6.39871,4.26492,10.66495,10.66493,10.66495
		h85.31944c6.39868,0,10.66492-4.26624,10.66492-10.66495c0-6.39868-4.26624-10.66492-10.66492-10.66492h-31.99478V181.34549
		c0-6.3987-4.26624-10.66493-10.66495-10.66493h-42.65971c-6.40001,0-10.66493,4.26624-10.66493,10.66493
		s4.26492,10.66493,10.66493,10.66493h31.99478v106.64931H222.93898z"/>
	<path d="M254.93376,149.35069c12.79741,0,21.32988-8.53116,21.32988-21.32986c0-12.79739-8.53247-21.32986-21.32988-21.32986
		c-12.79869,0-21.32985,8.53246-21.32985,21.32986C233.60391,140.81953,242.13507,149.35069,254.93376,149.35069z"/>
</g>
</svg>
