<?xml version="1.0" encoding="utf-8"?>
<!-- Generator: Adobe Illustrator 21.1.0, SVG Export Plug-In . SVG Version: 6.00 Build 0)  -->
<svg version="1.1" id="Calque_1" xmlns="http://www.w3.org/2000/svg" xmlns:xlink="http://www.w3.org/1999/xlink" x="0px" y="0px"
	 viewBox="0 0 512 512" style="enable-background:new 0 0 512 512;" xml:space="preserve">
<g>
	<path d="M145.1,290.1l-74.7,42.7c-6.4,2.1-8.5,8.5-4.3,12.8c2.1,4.3,4.3,6.4,8.5,6.4c2.1,0,4.3,0,6.4,0l74.7-42.7
		c6.4-4.3,8.5-8.5,4.3-14.9C155.7,288,149.4,288,145.1,290.1z"/>
	<path d="M469.3,85.4H42.7C19.2,85.4,0,104.6,0,128v256c0,23.5,19.2,42.7,42.7,42.7h426.6c23.5,0,42.7-19.2,42.7-42.7V128
		C512,104.6,492.8,85.4,469.3,85.4z M490.6,384c0,12.8-8.5,21.3-21.3,21.3H42.7c-12.8,0-21.3-8.5-21.3-21.3V128
		c0-12.8,8.5-21.3,21.3-21.3h426.6c12.8,0,21.3,8.5,21.3,21.3V384z"/>
	<path d="M445.8,174.9c-4.3-4.3-10.7-4.3-14.9-2.1L256,285.9l-174.9-113c-4.3-4.3-10.7-4.3-14.9,2.1c-4.3,6.4-2.1,12.8,2.1,14.9
		l181.3,117.3c2.1,2.1,4.3,2.1,6.4,2.1c2.1,0,4.3,0,6.4-2.1l181.3-117.3C448,185.6,448,179.2,445.8,174.9z"/>
	<path d="M443.7,330.7L369,288c-6.4-2.1-12.8,0-14.9,4.3c-2.1,6.4,0,12.8,4.3,14.9l74.7,42.7c0,2.1,2.1,2.1,4.3,2.1
		c4.3,0,6.4-2.1,10.7-6.4C450.1,339.2,448,332.8,443.7,330.7z"/>
</g>
</svg>
