<?xml version="1.0" encoding="utf-8"?>
<!-- Generator: Adobe Illustrator 21.1.0, SVG Export Plug-In . SVG Version: 6.00 Build 0)  -->
<svg version="1.1" id="Calque_1" xmlns="http://www.w3.org/2000/svg" xmlns:xlink="http://www.w3.org/1999/xlink" x="0px" y="0px"
	 viewBox="0 0 512 512" style="enable-background:new 0 0 512 512;" xml:space="preserve">
<style type="text/css">
	.st0{fill:none;}
</style>
<g id="Outline_Icons_48_">
	<g>
		<g>
			<path d="M501.2934,234.67014H287.99478c-6.39896,0-10.66492-4.26596-10.66492-10.66493V10.7066
				c0-6.39896,4.26596-10.66493,10.66492-10.66493c123.7132,0,223.96356,100.25034,223.96356,223.96353
				C511.95834,230.40417,507.69235,234.67014,501.2934,234.67014z M298.65973,213.34027h191.96875
				c-6.39896-102.38333-87.45245-185.56978-191.96875-191.96875V213.34027z"/>
		</g>
		<g>
			<path d="M439.4368,428.77188c-2.133,0-6.39893,0-8.53192-2.133L279.46286,275.19687c-2.133-4.26596-2.133-8.53195-2.133-12.79791
				C279.46286,258.133,283.72882,256,287.99478,256H501.2934c6.39896,0,10.66495,4.26596,10.66495,10.66492
				c0,59.72363-23.46286,115.18124-66.12259,157.84097C443.70276,426.63889,441.56979,428.77188,439.4368,428.77188z
				 M313.59061,277.32986L439.4368,403.17603c31.99481-34.12778,49.05869-78.92047,51.19168-125.84616H313.59061z"/>
		</g>
		<g>
			<path d="M226.1382,511.95834c-29.8618,0-59.72362-6.39896-87.45244-17.06387
				C53.36632,458.6337,0.04167,379.71323,0.04167,287.99481C0.04166,164.28159,100.292,64.03125,224.0052,64.03125
				c6.39896,0,10.66493,4.26597,10.66493,10.66493v209.03264l147.17603,147.17606c2.133,2.133,2.133,4.26599,2.133,8.53195
				c0,4.26593-2.133,6.39893-2.133,8.53192C339.18643,488.49548,283.72882,511.95834,226.1382,511.95834z M213.34027,85.36111
				C106.69096,91.76007,21.37152,179.21249,21.37152,287.99478c0,83.18646,46.9257,155.70798,125.84618,187.70276
				c74.65451,29.86182,155.70802,17.06387,213.2986-36.26077L217.60625,296.5267c-2.133-2.133-2.133-4.26596-2.133-8.53192V85.36111
				H213.34027z"/>
		</g>
	</g>
</g>
</svg>
