<?xml version="1.0" encoding="utf-8"?>
<!-- Generator: Adobe Illustrator 21.1.0, SVG Export Plug-In . SVG Version: 6.00 Build 0)  -->
<svg version="1.1" id="Calque_1" xmlns="http://www.w3.org/2000/svg" xmlns:xlink="http://www.w3.org/1999/xlink" x="0px" y="0px"
	 viewBox="0 0 512 512" style="enable-background:new 0 0 512 512;" xml:space="preserve">
<style type="text/css">
	.st0{fill:none;}
</style>
<g>
	<path class="st0" d="M377.58047,33.3296c-46.92596-4.26493-100.25061,27.72986-110.91556,106.6493
		c0,4.26624-4.2662,8.53247-10.66492,8.53247c-6.3987,0-10.66493-4.26624-10.66493-8.53247
		C234.67014,67.45815,187.74419,35.46336,142.952,35.46336c-2.13377,0-4.26624,0-6.3987,0
		C89.62734,37.59583,42.70139,80.25555,42.70139,165.575c0,151.44279,177.03758,285.82068,213.29861,311.41675
		c36.26102-29.86234,213.29861-181.30383,213.29861-324.21417C469.29861,75.98932,424.50644,37.59583,377.58047,33.3296z"/>
	<path d="M379.71292,11.99973C334.92075,7.7348,279.46234,33.3296,256,97.31918
		C230.4039,35.46336,179.21301,9.86727,134.41953,14.1335c-55.45712,4.26623-113.048,53.32465-113.048,151.4415
		c0,179.17134,219.69731,326.34662,228.22978,332.74664c2.13246,2.13245,4.26624,2.13245,6.3987,2.13245
		c2.13248,0,4.26624,0,6.39871-2.13245c8.53244-6.40002,228.22977-179.17136,228.22977-345.54401
		C490.62848,61.05946,433.0376,16.26597,379.71292,11.99973z M256,476.99176
		C219.73897,451.39566,42.70139,317.01779,42.70139,165.575c0-85.31944,46.92596-127.97917,93.85191-130.11163
		c2.13246,0,4.26492,0,6.3987,0c44.79219,0,91.71814,31.99479,102.38307,104.51553c0,4.26624,4.26624,8.53247,10.66493,8.53247
		c6.39871,0,10.66492-4.26624,10.66492-8.53247c10.66495-78.91944,63.98959-110.91423,110.91556-106.6493
		c46.92596,4.26623,91.71814,42.65972,91.71814,119.44801C469.29861,295.68793,292.26102,447.12943,256,476.99176z"/>
</g>
</svg>
