<?xml version="1.0" encoding="utf-8"?>
<!-- Generator: Adobe Illustrator 21.1.0, SVG Export Plug-In . SVG Version: 6.00 Build 0)  -->
<svg version="1.1" id="Calque_1" xmlns="http://www.w3.org/2000/svg" xmlns:xlink="http://www.w3.org/1999/xlink" x="0px" y="0px"
	 viewBox="0 0 512 512" style="enable-background:new 0 0 512 512;" xml:space="preserve">
<style type="text/css">
	.st0{fill:none;}
</style>
<g id="Outline_Icons_43_">
	<g>
		<g>
			<path d="M437.30383,501.82666H309.32465c-6.39896,0-10.66492-4.26599-10.66492-10.66495v-138.6441h-85.31944v138.6441
				c0,6.39896-4.26598,10.66495-10.66493,10.66495H74.69618c-6.39896,0-10.66493-4.26599-10.66493-10.66495V277.8631
				c0-6.39896,4.26598-10.66492,10.66493-10.66492s10.66493,4.26596,10.66493,10.66492v202.6337h106.64931v-138.6441
				c0-6.39896,4.26596-10.66492,10.66493-10.66492h106.64929c6.39899,0,10.66495,4.26596,10.66495,10.66492v138.6441h106.64929
				V288.52805c0-6.39896,4.26599-10.66495,10.66495-10.66495c6.39893,0,10.66492,4.26599,10.66492,10.66495v202.63367
				C447.96875,497.56067,443.70276,501.82666,437.30383,501.82666z"/>
		</g>
		<g>
			<path d="M501.2934,277.8631c-2.133,0-6.39893,0-8.53192-2.133L256,36.83567L19.23854,275.7301
				c-4.26597,4.26599-10.66493,4.26599-14.9309,0c-4.26597-4.26596-4.26597-10.66492,0-14.93088L247.46806,13.37283
				c4.26598-4.26597,10.66493-4.26597,14.93089,0l245.2934,245.2934c4.26599,4.26599,4.26599,10.66495,0,14.93091
				C507.69235,277.8631,503.42639,277.8631,501.2934,277.8631z"/>
		</g>
		<g>
			<path d="M415.97397,128.55408c-6.39896,0-10.66495-4.26597-10.66495-10.66493V53.89956h-63.98956
				c-6.39899,0-10.66495-4.26597-10.66495-10.66493s4.26596-10.66493,10.66495-10.66493h74.65451
				c6.39893,0,10.66492,4.26597,10.66492,10.66493v74.65451C426.63889,124.28811,422.37289,128.55408,415.97397,128.55408z"/>
		</g>
	</g>
</g>
</svg>
