<?xml version="1.0" encoding="utf-8"?>
<!-- Generator: Adobe Illustrator 21.1.0, SVG Export Plug-In . SVG Version: 6.00 Build 0)  -->
<svg version="1.1" id="Calque_1" xmlns="http://www.w3.org/2000/svg" xmlns:xlink="http://www.w3.org/1999/xlink" x="0px" y="0px"
	 viewBox="0 0 512 512" style="enable-background:new 0 0 512 512;" xml:space="preserve">
<style type="text/css">
	.st0{fill:none;}
</style>
<g>
	<path d="M342.37897,149.35069c0-46.92596-38.39481-85.31944-85.31946-85.31944c-46.92595,0-85.31944,38.39349-85.31944,85.31944
		s38.39349,85.31944,85.31944,85.31944C303.98416,234.67014,342.37897,196.27664,342.37897,149.35069z M193.06993,149.35069
		c0-36.26102,27.72856-63.98959,63.98958-63.98959c36.25974,0,63.98959,27.72856,63.98959,63.98959
		s-27.72986,63.98958-63.98959,63.98958C220.79849,213.34027,193.06993,185.61172,193.06993,149.35069z"/>
	<path d="M257.05951,469.29861c4.26495,0,6.39871-2.13376,10.66495-4.26624
		c4.26492-8.53247,147.17526-223.96355,147.17526-307.15051c0-87.4519-70.38828-157.84018-157.84021-157.84018
		c-87.4532,0-157.84149,70.38828-155.70901,157.84018c0,81.05452,140.77786,298.61804,147.17657,307.15051
		C250.65952,467.16486,252.79329,469.29861,257.05951,469.29861z M257.05951,21.37152
		c74.65451,0,136.51035,61.85582,136.51035,136.51033c0,63.98959-104.51553,232.49602-136.51035,281.55444
		c-31.99478-49.05841-136.51163-215.43108-136.51163-281.55444C120.54788,83.22734,182.405,21.37152,257.05951,21.37152z"/>
	<path d="M361.57507,409.57526c-4.26624,0-10.66495,4.26492-10.66495,10.66495c0,4.26492,4.26624,10.66492,10.66495,10.66492
		c98.11813,8.53116,127.97916,25.59479,130.11292,27.72858c-6.39999,10.66492-89.58566,31.99478-234.62848,31.99478
		c-145.0441,0-228.22977-21.32986-236.76224-31.99478c2.13377-4.26624,31.99479-19.19742,127.97916-27.72858
		c6.3987,0,10.66493-4.26624,10.66493-10.66492c0-6.40002-4.26624-10.66495-10.66493-10.66495
		C50.1596,418.10641,1.10118,435.17004,1.10118,458.6337c0,51.19086,230.36224,53.32465,255.95833,53.32465
		c25.59479,0,255.95837-2.13379,253.82458-53.32465C510.88409,435.17004,459.69321,418.10641,361.57507,409.57526z"/>
</g>
</svg>
