<?xml version="1.0" encoding="utf-8"?>
<!-- Generator: Adobe Illustrator 21.1.0, SVG Export Plug-In . SVG Version: 6.00 Build 0)  -->
<svg version="1.1" id="Calque_1" xmlns="http://www.w3.org/2000/svg" xmlns:xlink="http://www.w3.org/1999/xlink" x="0px" y="0px"
	 viewBox="0 0 512 512" style="enable-background:new 0 0 512 512;" xml:space="preserve">
<style type="text/css">
	.st0{fill:none;}
</style>
<g>
	<path d="M256,0.04166c-93.85191,0-170.63889,76.78698-170.63889,170.63889c0,89.58568,155.70773,326.34662,162.10641,337.01154
		c2.13377,2.13245,4.26624,4.26624,8.53247,4.26624s6.39871-2.13379,8.53247-4.26624
		c6.39868-10.66495,162.10641-247.42587,162.10641-337.01154C426.63889,76.82864,349.8519,0.04166,256,0.04166z M256,482.09601
		c-34.12726-53.32465-149.30902-238.8947-149.30902-311.41547c0-83.18698,66.12205-149.30904,149.30902-149.30904
		s149.30902,66.12206,149.30902,149.30904C405.30902,243.20131,290.12726,430.90512,256,482.09601z"/>
	<path d="M256,96.02604c-40.52725,0-74.65451,34.12727-74.65451,74.65452c0,40.52596,34.12726,74.65451,74.65451,74.65451
		s74.65451-34.12856,74.65451-74.65451C330.65451,130.15331,296.52725,96.02604,256,96.02604z M256,224.0052
		c-29.86232,0-53.32465-23.46362-53.32465-53.32465c0-29.86234,23.46233-53.32465,53.32465-53.32465
		s53.32465,23.46232,53.32465,53.32465C309.32465,200.54158,285.86234,224.0052,256,224.0052z"/>
</g>
</svg>
