<?xml version="1.0" encoding="utf-8"?>
<!-- Generator: Adobe Illustrator 21.1.0, SVG Export Plug-In . SVG Version: 6.00 Build 0)  -->
<svg version="1.1" id="Calque_1" xmlns="http://www.w3.org/2000/svg" xmlns:xlink="http://www.w3.org/1999/xlink" x="0px" y="0px"
	 viewBox="0 0 512 512" style="enable-background:new 0 0 512 512;" xml:space="preserve">
<style type="text/css">
	.st0{fill:none;}
</style>
<path d="M426.01395,216.80602c-2.13248-4.26622-4.26624-6.3987-8.53116-6.3987l-104.51685-17.06363l-46.92596-93.85191
	c-4.26624-6.3987-14.93117-6.3987-19.19609,0l-46.92595,93.85191L95.40109,210.40732c-4.26624,0-6.3987,4.26624-8.53117,6.3987
	c-2.13377,4.26624,0,8.53247,2.13247,10.66493l74.65451,72.52206l-19.19739,102.38306c0,4.26624,0,8.53247,4.26622,10.66495
	c6.3987,4.26624,10.66493,4.26624,12.79871,2.13245l93.8506-49.05841l95.98439,49.05841c2.13376,0,2.13376,2.13379,4.26624,2.13379
	c2.13245,0,4.26624,0,6.39868-2.13379c4.26624-2.13245,4.26624-6.39868,4.26624-10.66492L347.0932,302.12546l74.65451-72.52074
	C426.01395,225.33849,426.01395,221.07225,426.01395,216.80602z"/>
</svg>
