<?xml version="1.0" encoding="utf-8"?>
<!-- Generator: Adobe Illustrator 21.1.0, SVG Export Plug-In . SVG Version: 6.00 Build 0)  -->
<svg version="1.1" id="Calque_1" xmlns="http://www.w3.org/2000/svg" xmlns:xlink="http://www.w3.org/1999/xlink" x="0px" y="0px"
	 viewBox="0 0 512 512" style="enable-background:new 0 0 512 512;" xml:space="preserve">
<style type="text/css">
	.st0{fill:none;}
</style>
<g>
	<path d="M117.3559,256c63.98959,0,117.31423-53.32465,117.31423-117.31424S181.34549,21.37152,117.3559,21.37152
		S0.04166,74.69618,0.04166,138.68576S53.36632,256,117.3559,256z M117.3559,42.70139
		c53.32465,0,95.98437,42.65972,95.98437,95.98438s-42.65971,95.98438-95.98437,95.98438s-95.98438-42.65971-95.98438-95.98438
		S64.03125,42.70139,117.3559,42.70139z"/>
	<path d="M117.3559,170.68056h42.65972c6.3987,0,10.66493-4.26624,10.66493-10.66493s-4.26624-10.66493-10.66493-10.66493h-31.9948
		V85.36111c0-6.3987-4.26623-10.66492-10.66492-10.66492s-10.66493,4.26623-10.66493,10.66492v74.65452
		C106.69097,166.41432,110.95721,170.68056,117.3559,170.68056z"/>
	<path d="M74.69618,319.98959H10.7066c-6.3987,0-10.66493,4.26624-10.66493,10.66492c0,6.39871,4.26623,10.66495,10.66493,10.66495
		h63.98959c6.3987,0,10.66492-4.26624,10.66492-10.66495C85.36111,324.25583,81.09488,319.98959,74.69618,319.98959z"/>
	<path d="M74.69618,362.64929h-31.9948c-6.3987,0-10.66493,4.26624-10.66493,10.66495c0,6.39868,4.26623,10.66492,10.66493,10.66492
		h31.9948c6.3987,0,10.66492-4.26624,10.66492-10.66492C85.36111,366.91553,81.09488,362.64929,74.69618,362.64929z"/>
	<path d="M74.69618,405.30902H64.03125c-6.3987,0-10.66493,4.26624-10.66493,10.66495c0,6.39868,4.26623,10.66492,10.66493,10.66492
		h10.66493c6.3987,0,10.66492-4.26624,10.66492-10.66492C85.36111,409.57526,81.09488,405.30902,74.69618,405.30902z"/>
	<path d="M509.82587,369.048l-53.32465-85.31946c-2.13376-4.2662-4.26624-6.39868-8.53247-6.39868h-85.31946V224.0052
		c0-6.3987-4.2662-10.66493-10.66492-10.66493H245.33507c-6.3987,0-10.66493,4.26624-10.66493,10.66493
		s4.26624,10.66493,10.66493,10.66493h95.98439v53.32465v83.1857v53.32465H238.93637
		c-6.3987-12.79739-21.32986-21.32986-36.26102-21.32986c-14.93117,0-29.86234,8.53247-36.26103,21.32986h-38.39349v-138.6441
		c0-4.26492-4.26623-8.53116-10.66492-8.53116s-10.66493,4.26624-10.66493,10.66492v149.30905
		c0,6.39868,4.26624,10.66492,10.66493,10.66492h42.65972c0,23.46234,19.19739,42.65973,42.65973,42.65973
		s42.65971-19.19739,42.65971-42.65973h106.64931h21.32986c0,23.46234,19.19739,42.65973,42.65973,42.65973
		c23.46231,0,42.65973-19.19739,42.65973-42.65973h42.6597c6.39871,0,10.66495-4.26624,10.66495-10.66492v-63.98959
		C511.95834,371.18048,511.95834,369.048,509.82587,369.048z M202.67535,469.29861c-12.79741,0-21.32986-8.53247-21.32986-21.32986
		c0-12.79871,8.53246-21.32986,21.32986-21.32986c12.79739,0,21.32985,8.53116,21.32985,21.32986
		C224.0052,460.76614,215.47275,469.29861,202.67535,469.29861z M362.64929,298.65973h78.92078l40.52594,63.98956H362.64929
		V298.65973z M415.97397,469.29861c-12.79739,0-21.32986-8.53247-21.32986-21.32986c0-12.79871,8.53247-21.32986,21.32986-21.32986
		s21.32986,8.53116,21.32986,21.32986C437.30383,460.76614,428.77136,469.29861,415.97397,469.29861z M490.62848,426.63889
		h-38.39349c-6.39871-12.79871-21.32986-21.32986-36.26102-21.32986c-14.93118,0-29.86234,8.53116-36.26105,21.32986h-17.06363
		v-42.65973h127.97919V426.63889z"/>
</g>
</svg>
